%YAML 1.1
%TAG !u! tag:unity3d.com,2011:
--- !u!21 &2100000
Material:
  serializedVersion: 6
  m_ObjectHideFlags: 0
  m_CorrespondingSourceObject: {fileID: 0}
  m_PrefabInstance: {fileID: 0}
  m_PrefabAsset: {fileID: 0}
  m_Name: Add
  m_Shader: {fileID: 4800000, guid: b36682a2a82e54bb28920dd1a712dc4d, type: 3}
  m_ShaderKeywords: 
  m_LightmapFlags: 5
  m_EnableInstancingVariants: 0
  m_DoubleSidedGI: 0
  m_CustomRenderQueue: -1
  stringTagMap: {}
  disabledShaderPasses: []
  m_SavedProperties:
    serializedVersion: 3
    m_TexEnvs: []
    m_Floats:
    - _FaceToggle: 1
    - _GridAlpha: 0.3
    - _GridSize: 0.5
    - _GridStrength: 0.3
    - _GridThickness: 0.03
    - _GridToggle: 0
    m_Colors:
    - _Color: {r: 0, g: 0.70980394, b: 1, a: 0.2}
